register_file/register_file_test.vcd
$date
	Tue Mar 14 21:17:40 2023
$end
$version
	Icarus Verilog
$end
$timescale
	1s
$end
$scope module register_file_test $end
$var wire 32 ! outputA [31:0] $end
$var wire 32 " outputB [31:0] $end
$var wire 32 # outputD [31:0] $end
$var reg 1 $ clock $end
$var reg 32 % data_writer [31:0] $end
$var reg 1 & enable $end
$var integer 32 ' i [31:0] $end
$var reg 5 ( select_decoder [4:0] $end
$var reg 5 ) select_readerA [4:0] $end
$var reg 5 * select_readerB [4:0] $end
$var reg 5 + select_readerD [4:0] $end
$scope module RF01 $end
$var wire 32 , PA [31:0] $end
$var wire 32 - PB [31:0] $end
$var wire 32 . PD [31:0] $end
$var wire 32 / PW [31:0] $end
$var wire 5 0 RA [4:0] $end
$var wire 5 1 RB [4:0] $end
$var wire 5 2 RD [4:0] $end
$var wire 5 3 RW [4:0] $end
$var wire 32 4 Rout0 [31:0] $end
$var wire 32 5 Rout1 [31:0] $end
$var wire 32 6 Rout10 [31:0] $end
$var wire 32 7 Rout11 [31:0] $end
$var wire 32 8 Rout12 [31:0] $end
$var wire 32 9 Rout13 [31:0] $end
$var wire 32 : Rout14 [31:0] $end
$var wire 32 ; Rout15 [31:0] $end
$var wire 32 < Rout16 [31:0] $end
$var wire 32 = Rout17 [31:0] $end
$var wire 32 > Rout18 [31:0] $end
$var wire 32 ? Rout19 [31:0] $end
$var wire 32 @ Rout2 [31:0] $end
$var wire 32 A Rout20 [31:0] $end
$var wire 32 B Rout21 [31:0] $end
$var wire 32 C Rout22 [31:0] $end
$var wire 32 D Rout23 [31:0] $end
$var wire 32 E Rout24 [31:0] $end
$var wire 32 F Rout25 [31:0] $end
$var wire 32 G Rout26 [31:0] $end
$var wire 32 H Rout27 [31:0] $end
$var wire 32 I Rout28 [31:0] $end
$var wire 32 J Rout29 [31:0] $end
$var wire 32 K Rout3 [31:0] $end
$var wire 32 L Rout30 [31:0] $end
$var wire 32 M Rout31 [31:0] $end
$var wire 32 N Rout4 [31:0] $end
$var wire 32 O Rout5 [31:0] $end
$var wire 32 P Rout6 [31:0] $end
$var wire 32 Q Rout7 [31:0] $end
$var wire 32 R Rout8 [31:0] $end
$var wire 32 S Rout9 [31:0] $end
$var wire 1 T clock $end
$var wire 1 U enable $end
$var wire 32 V out_decoder [31:0] $end
$scope module D01 $end
$var wire 1 U enable $end
$var wire 5 W select [4:0] $end
$var reg 32 X out_add [31:0] $end
$upscope $end
$scope module R0 $end
$var wire 1 T clock $end
$var wire 1 Y enable $end
$var wire 32 Z in_reg [31:0] $end
$var reg 32 [ out_reg [31:0] $end
$upscope $end
$scope module R1 $end
$var wire 1 T clock $end
$var wire 1 \ enable $end
$var wire 32 ] in_reg [31:0] $end
$var reg 32 ^ out_reg [31:0] $end
$upscope $end
$scope module R2 $end
$var wire 1 T clock $end
$var wire 1 _ enable $end
$var wire 32 ` in_reg [31:0] $end
$var reg 32 a out_reg [31:0] $end
$upscope $end
$scope module R3 $end
$var wire 1 T clock $end
$var wire 1 b enable $end
$var wire 32 c in_reg [31:0] $end
$var reg 32 d out_reg [31:0] $end
$upscope $end
$scope module R4 $end
$var wire 1 T clock $end
$var wire 1 e enable $end
$var wire 32 f in_reg [31:0] $end
$var reg 32 g out_reg [31:0] $end
$upscope $end
$scope module R5 $end
$var wire 1 T clock $end
$var wire 1 h enable $end
$var wire 32 i in_reg [31:0] $end
$var reg 32 j out_reg [31:0] $end
$upscope $end
$scope module R6 $end
$var wire 1 T clock $end
$var wire 1 k enable $end
$var wire 32 l in_reg [31:0] $end
$var reg 32 m out_reg [31:0] $end
$upscope $end
$scope module R7 $end
$var wire 1 T clock $end
$var wire 1 n enable $end
$var wire 32 o in_reg [31:0] $end
$var reg 32 p out_reg [31:0] $end
$upscope $end
$scope module R8 $end
$var wire 1 T clock $end
$var wire 1 q enable $end
$var wire 32 r in_reg [31:0] $end
$var reg 32 s out_reg [31:0] $end
$upscope $end
$scope module R9 $end
$var wire 1 T clock $end
$var wire 1 t enable $end
$var wire 32 u in_reg [31:0] $end
$var reg 32 v out_reg [31:0] $end
$upscope $end
$scope module R10 $end
$var wire 1 T clock $end
$var wire 1 w enable $end
$var wire 32 x in_reg [31:0] $end
$var reg 32 y out_reg [31:0] $end
$upscope $end
$scope module R11 $end
$var wire 1 T clock $end
$var wire 1 z enable $end
$var wire 32 { in_reg [31:0] $end
$var reg 32 | out_reg [31:0] $end
$upscope $end
$scope module R12 $end
$var wire 1 T clock $end
$var wire 1 } enable $end
$var wire 32 ~ in_reg [31:0] $end
$var reg 32 !" out_reg [31:0] $end
$upscope $end
$scope module R13 $end
$var wire 1 T clock $end
$var wire 1 "" enable $end
$var wire 32 #" in_reg [31:0] $end
$var reg 32 $" out_reg [31:0] $end
$upscope $end
$scope module R14 $end
$var wire 1 T clock $end
$var wire 1 %" enable $end
$var wire 32 &" in_reg [31:0] $end
$var reg 32 '" out_reg [31:0] $end
$upscope $end
$scope module R15 $end
$var wire 1 T clock $end
$var wire 1 (" enable $end
$var wire 32 )" in_reg [31:0] $end
$var reg 32 *" out_reg [31:0] $end
$upscope $end
$scope module R16 $end
$var wire 1 T clock $end
$var wire 1 +" enable $end
$var wire 32 ," in_reg [31:0] $end
$var reg 32 -" out_reg [31:0] $end
$upscope $end
$scope module R17 $end
$var wire 1 T clock $end
$var wire 1 ." enable $end
$var wire 32 /" in_reg [31:0] $end
$var reg 32 0" out_reg [31:0] $end
$upscope $end
$scope module R18 $end
$var wire 1 T clock $end
$var wire 1 1" enable $end
$var wire 32 2" in_reg [31:0] $end
$var reg 32 3" out_reg [31:0] $end
$upscope $end
$scope module R19 $end
$var wire 1 T clock $end
$var wire 1 4" enable $end
$var wire 32 5" in_reg [31:0] $end
$var reg 32 6" out_reg [31:0] $end
$upscope $end
$scope module R20 $end
$var wire 1 T clock $end
$var wire 1 7" enable $end
$var wire 32 8" in_reg [31:0] $end
$var reg 32 9" out_reg [31:0] $end
$upscope $end
$scope module R21 $end
$var wire 1 T clock $end
$var wire 1 :" enable $end
$var wire 32 ;" in_reg [31:0] $end
$var reg 32 <" out_reg [31:0] $end
$upscope $end
$scope module R22 $end
$var wire 1 T clock $end
$var wire 1 =" enable $end
$var wire 32 >" in_reg [31:0] $end
$var reg 32 ?" out_reg [31:0] $end
$upscope $end
$scope module R23 $end
$var wire 1 T clock $end
$var wire 1 @" enable $end
$var wire 32 A" in_reg [31:0] $end
$var reg 32 B" out_reg [31:0] $end
$upscope $end
$scope module R24 $end
$var wire 1 T clock $end
$var wire 1 C" enable $end
$var wire 32 D" in_reg [31:0] $end
$var reg 32 E" out_reg [31:0] $end
$upscope $end
$scope module R25 $end
$var wire 1 T clock $end
$var wire 1 F" enable $end
$var wire 32 G" in_reg [31:0] $end
$var reg 32 H" out_reg [31:0] $end
$upscope $end
$scope module R26 $end
$var wire 1 T clock $end
$var wire 1 I" enable $end
$var wire 32 J" in_reg [31:0] $end
$var reg 32 K" out_reg [31:0] $end
$upscope $end
$scope module R27 $end
$var wire 1 T clock $end
$var wire 1 L" enable $end
$var wire 32 M" in_reg [31:0] $end
$var reg 32 N" out_reg [31:0] $end
$upscope $end
$scope module R28 $end
$var wire 1 T clock $end
$var wire 1 O" enable $end
$var wire 32 P" in_reg [31:0] $end
$var reg 32 Q" out_reg [31:0] $end
$upscope $end
$scope module R29 $end
$var wire 1 T clock $end
$var wire 1 R" enable $end
$var wire 32 S" in_reg [31:0] $end
$var reg 32 T" out_reg [31:0] $end
$upscope $end
$scope module R30 $end
$var wire 1 T clock $end
$var wire 1 U" enable $end
$var wire 32 V" in_reg [31:0] $end
$var reg 32 W" out_reg [31:0] $end
$upscope $end
$scope module R31 $end
$var wire 1 T clock $end
$var wire 1 X" enable $end
$var wire 32 Y" in_reg [31:0] $end
$var reg 32 Z" out_reg [31:0] $end
$upscope $end
$scope module M01 $end
$var wire 32 [" R00 [31:0] $end
$var wire 32 \" R01 [31:0] $end
$var wire 32 ]" R02 [31:0] $end
$var wire 32 ^" R03 [31:0] $end
$var wire 32 _" R04 [31:0] $end
$var wire 32 `" R05 [31:0] $end
$var wire 32 a" R06 [31:0] $end
$var wire 32 b" R07 [31:0] $end
$var wire 32 c" R08 [31:0] $end
$var wire 32 d" R09 [31:0] $end
$var wire 32 e" R10 [31:0] $end
$var wire 32 f" R11 [31:0] $end
$var wire 32 g" R12 [31:0] $end
$var wire 32 h" R13 [31:0] $end
$var wire 32 i" R14 [31:0] $end
$var wire 32 j" R15 [31:0] $end
$var wire 32 k" R16 [31:0] $end
$var wire 32 l" R17 [31:0] $end
$var wire 32 m" R18 [31:0] $end
$var wire 32 n" R19 [31:0] $end
$var wire 32 o" R20 [31:0] $end
$var wire 32 p" R21 [31:0] $end
$var wire 32 q" R22 [31:0] $end
$var wire 32 r" R23 [31:0] $end
$var wire 32 s" R24 [31:0] $end
$var wire 32 t" R25 [31:0] $end
$var wire 32 u" R26 [31:0] $end
$var wire 32 v" R27 [31:0] $end
$var wire 32 w" R28 [31:0] $end
$var wire 32 x" R29 [31:0] $end
$var wire 32 y" R30 [31:0] $end
$var wire 32 z" R31 [31:0] $end
$var wire 5 {" select [4:0] $end
$var reg 32 |" out_reg [31:0] $end
$upscope $end
$scope module M02 $end
$var wire 32 }" R00 [31:0] $end
$var wire 32 ~" R01 [31:0] $end
$var wire 32 !# R02 [31:0] $end
$var wire 32 "# R03 [31:0] $end
$var wire 32 ## R04 [31:0] $end
$var wire 32 $# R05 [31:0] $end
$var wire 32 %# R06 [31:0] $end
$var wire 32 &# R07 [31:0] $end
$var wire 32 '# R08 [31:0] $end
$var wire 32 (# R09 [31:0] $end
$var wire 32 )# R10 [31:0] $end
$var wire 32 *# R11 [31:0] $end
$var wire 32 +# R12 [31:0] $end
$var wire 32 ,# R13 [31:0] $end
$var wire 32 -# R14 [31:0] $end
$var wire 32 .# R15 [31:0] $end
$var wire 32 /# R16 [31:0] $end
$var wire 32 0# R17 [31:0] $end
$var wire 32 1# R18 [31:0] $end
$var wire 32 2# R19 [31:0] $end
$var wire 32 3# R20 [31:0] $end
$var wire 32 4# R21 [31:0] $end
$var wire 32 5# R22 [31:0] $end
$var wire 32 6# R23 [31:0] $end
$var wire 32 7# R24 [31:0] $end
$var wire 32 8# R25 [31:0] $end
$var wire 32 9# R26 [31:0] $end
$var wire 32 :# R27 [31:0] $end
$var wire 32 ;# R28 [31:0] $end
$var wire 32 <# R29 [31:0] $end
$var wire 32 =# R30 [31:0] $end
$var wire 32 ># R31 [31:0] $end
$var wire 5 ?# select [4:0] $end
$var reg 32 @# out_reg [31:0] $end
$upscope $end
$scope module M03 $end
$var wire 32 A# R00 [31:0] $end
$var wire 32 B# R01 [31:0] $end
$var wire 32 C# R02 [31:0] $end
$var wire 32 D# R03 [31:0] $end
$var wire 32 E# R04 [31:0] $end
$var wire 32 F# R05 [31:0] $end
$var wire 32 G# R06 [31:0] $end
$var wire 32 H# R07 [31:0] $end
$var wire 32 I# R08 [31:0] $end
$var wire 32 J# R09 [31:0] $end
$var wire 32 K# R10 [31:0] $end
$var wire 32 L# R11 [31:0] $end
$var wire 32 M# R12 [31:0] $end
$var wire 32 N# R13 [31:0] $end
$var wire 32 O# R14 [31:0] $end
$var wire 32 P# R15 [31:0] $end
$var wire 32 Q# R16 [31:0] $end
$var wire 32 R# R17 [31:0] $end
$var wire 32 S# R18 [31:0] $end
$var wire 32 T# R19 [31:0] $end
$var wire 32 U# R20 [31:0] $end
$var wire 32 V# R21 [31:0] $end
$var wire 32 W# R22 [31:0] $end
$var wire 32 X# R23 [31:0] $end
$var wire 32 Y# R24 [31:0] $end
$var wire 32 Z# R25 [31:0] $end
$var wire 32 [# R26 [31:0] $end
$var wire 32 \# R27 [31:0] $end
$var wire 32 ]# R28 [31:0] $end
$var wire 32 ^# R29 [31:0] $end
$var wire 32 _# R30 [31:0] $end
$var wire 32 `# R31 [31:0] $end
$var wire 5 a# select [4:0] $end
$var reg 32 b# out_reg [31:0] $end
$upscope $end
$upscope $end
$upscope $end
$enddefinitions $end
#0
$dumpvars
bx b#
bx a#
bx `#
bx _#
bx ^#
bx ]#
bx \#
bx [#
bx Z#
bx Y#
bx X#
bx W#
bx V#
bx U#
bx T#
bx S#
bx R#
bx Q#
bx P#
bx O#
bx N#
bx M#
bx L#
bx K#
bx J#
bx I#
bx H#
bx G#
bx F#
bx E#
bx D#
bx C#
bx B#
b0 A#
bx @#
bx ?#
bx >#
bx =#
bx <#
bx ;#
bx :#
bx 9#
bx 8#
bx 7#
bx 6#
bx 5#
bx 4#
bx 3#
bx 2#
bx 1#
bx 0#
bx /#
bx .#
bx -#
bx ,#
bx +#
bx *#
bx )#
bx (#
bx '#
bx &#
bx %#
bx $#
bx ##
bx "#
bx !#
bx ~"
b0 }"
bx |"
bx {"
bx z"
bx y"
bx x"
bx w"
bx v"
bx u"
bx t"
bx s"
bx r"
bx q"
bx p"
bx o"
bx n"
bx m"
bx l"
bx k"
bx j"
bx i"
bx h"
bx g"
bx f"
bx e"
bx d"
bx c"
bx b"
bx a"
bx `"
bx _"
bx ^"
bx ]"
bx \"
b0 ["
bx Z"
bx Y"
xX"
bx W"
bx V"
xU"
bx T"
bx S"
xR"
bx Q"
bx P"
xO"
bx N"
bx M"
xL"
bx K"
bx J"
xI"
bx H"
bx G"
xF"
bx E"
bx D"
xC"
bx B"
bx A"
x@"
bx ?"
bx >"
x="
bx <"
bx ;"
x:"
bx 9"
bx 8"
x7"
bx 6"
bx 5"
x4"
bx 3"
bx 2"
x1"
bx 0"
bx /"
x."
bx -"
bx ,"
x+"
bx *"
bx )"
x("
bx '"
bx &"
x%"
bx $"
bx #"
x""
bx !"
bx ~
x}
bx |
bx {
xz
bx y
bx x
xw
bx v
bx u
xt
bx s
bx r
xq
bx p
bx o
xn
bx m
bx l
xk
bx j
bx i
xh
bx g
bx f
xe
bx d
bx c
xb
bx a
bx `
x_
bx ^
bx ]
x\
bx [
bx Z
xY
bx X
bx W
bx V
1U
0T
bx S
bx R
bx Q
bx P
bx O
bx N
bx M
bx L
bx K
bx J
bx I
bx H
bx G
bx F
bx E
bx D
bx C
bx B
bx A
bx @
bx ?
bx >
bx =
bx <
bx ;
bx :
bx 9
bx 8
bx 7
bx 6
bx 5
bx 4
bx 3
bx 2
bx 1
bx 0
bx /
bx .
bx -
bx ,
bx +
bx *
bx )
bx (
bx '
1&
bx %
0$
bx #
bx "
bx !
$end
#1
0X"
0U"
0R"
0O"
0L"
0I"
0F"
0C"
0@"
0="
0:"
07"
04"
01"
0."
0+"
0("
0%"
0""
0}
0z
0w
0t
0q
0n
0k
0h
0e
0b
0_
0\
1Y
b0 |"
b0 !
b0 ,
b1 X
b1 V
b0 '
b11110 +
b11110 2
b11110 a#
b11111 *
b11111 1
b11111 ?#
b0 )
b0 0
b0 {"
b0 (
b0 3
b0 W
b10100 %
b10100 /
b10100 Z
b10100 ]
b10100 `
b10100 c
b10100 f
b10100 i
b10100 l
b10100 o
b10100 r
b10100 u
b10100 x
b10100 {
b10100 ~
b10100 #"
b10100 &"
b10100 )"
b10100 ,"
b10100 /"
b10100 2"
b10100 5"
b10100 8"
b10100 ;"
b10100 >"
b10100 A"
b10100 D"
b10100 G"
b10100 J"
b10100 M"
b10100 P"
b10100 S"
b10100 V"
b10100 Y"
#2
b10100 [
b10100 4
1$
1T
#4
0$
0T
#5
1\
0Y
b0 @#
b0 "
b0 -
bx |"
bx !
bx ,
b10 X
b10 V
b1 '
b11111 +
b11111 2
b11111 a#
b0 *
b0 1
b0 ?#
b1 )
b1 0
b1 {"
b1 (
b1 3
b1 W
b10101 %
b10101 /
b10101 Z
b10101 ]
b10101 `
b10101 c
b10101 f
b10101 i
b10101 l
b10101 o
b10101 r
b10101 u
b10101 x
b10101 {
b10101 ~
b10101 #"
b10101 &"
b10101 )"
b10101 ,"
b10101 /"
b10101 2"
b10101 5"
b10101 8"
b10101 ;"
b10101 >"
b10101 A"
b10101 D"
b10101 G"
b10101 J"
b10101 M"
b10101 P"
b10101 S"
b10101 V"
b10101 Y"
#6
b10101 |"
b10101 !
b10101 ,
b10101 ^
b10101 5
b10101 \"
b10101 ~"
b10101 B#
1$
1T
#8
0$
0T
#9
1_
0\
b0 b#
b0 #
b0 .
b10101 @#
b10101 "
b10101 -
bx |"
bx !
bx ,
b100 X
b100 V
b10 '
b0 +
b0 2
b0 a#
b1 *
b1 1
b1 ?#
b10 )
b10 0
b10 {"
b10 (
b10 3
b10 W
b10110 %
b10110 /
b10110 Z
b10110 ]
b10110 `
b10110 c
b10110 f
b10110 i
b10110 l
b10110 o
b10110 r
b10110 u
b10110 x
b10110 {
b10110 ~
b10110 #"
b10110 &"
b10110 )"
b10110 ,"
b10110 /"
b10110 2"
b10110 5"
b10110 8"
b10110 ;"
b10110 >"
b10110 A"
b10110 D"
b10110 G"
b10110 J"
b10110 M"
b10110 P"
b10110 S"
b10110 V"
b10110 Y"
#10
b10110 |"
b10110 !
b10110 ,
b10110 a
b10110 @
b10110 ]"
b10110 !#
b10110 C#
1$
1T
#12
0$
0T
#13
1b
0_
b10101 b#
b10101 #
b10101 .
b10110 @#
b10110 "
b10110 -
bx |"
bx !
bx ,
b1000 X
b1000 V
b11 '
b1 +
b1 2
b1 a#
b10 *
b10 1
b10 ?#
b11 )
b11 0
b11 {"
b11 (
b11 3
b11 W
b10111 %
b10111 /
b10111 Z
b10111 ]
b10111 `
b10111 c
b10111 f
b10111 i
b10111 l
b10111 o
b10111 r
b10111 u
b10111 x
b10111 {
b10111 ~
b10111 #"
b10111 &"
b10111 )"
b10111 ,"
b10111 /"
b10111 2"
b10111 5"
b10111 8"
b10111 ;"
b10111 >"
b10111 A"
b10111 D"
b10111 G"
b10111 J"
b10111 M"
b10111 P"
b10111 S"
b10111 V"
b10111 Y"
#14
b10111 |"
b10111 !
b10111 ,
b10111 d
b10111 K
b10111 ^"
b10111 "#
b10111 D#
1$
1T
#16
0$
0T
#17
1e
0b
b10110 b#
b10110 #
b10110 .
b10111 @#
b10111 "
b10111 -
bx |"
bx !
bx ,
b10000 X
b10000 V
b100 '
b10 +
b10 2
b10 a#
b11 *
b11 1
b11 ?#
b100 )
b100 0
b100 {"
b100 (
b100 3
b100 W
b11000 %
b11000 /
b11000 Z
b11000 ]
b11000 `
b11000 c
b11000 f
b11000 i
b11000 l
b11000 o
b11000 r
b11000 u
b11000 x
b11000 {
b11000 ~
b11000 #"
b11000 &"
b11000 )"
b11000 ,"
b11000 /"
b11000 2"
b11000 5"
b11000 8"
b11000 ;"
b11000 >"
b11000 A"
b11000 D"
b11000 G"
b11000 J"
b11000 M"
b11000 P"
b11000 S"
b11000 V"
b11000 Y"
#18
b11000 |"
b11000 !
b11000 ,
b11000 g
b11000 N
b11000 _"
b11000 ##
b11000 E#
1$
1T
#20
0$
0T
#21
1h
0e
b10111 b#
b10111 #
b10111 .
b11000 @#
b11000 "
b11000 -
bx |"
bx !
bx ,
b100000 X
b100000 V
b101 '
b11 +
b11 2
b11 a#
b100 *
b100 1
b100 ?#
b101 )
b101 0
b101 {"
b101 (
b101 3
b101 W
b11001 %
b11001 /
b11001 Z
b11001 ]
b11001 `
b11001 c
b11001 f
b11001 i
b11001 l
b11001 o
b11001 r
b11001 u
b11001 x
b11001 {
b11001 ~
b11001 #"
b11001 &"
b11001 )"
b11001 ,"
b11001 /"
b11001 2"
b11001 5"
b11001 8"
b11001 ;"
b11001 >"
b11001 A"
b11001 D"
b11001 G"
b11001 J"
b11001 M"
b11001 P"
b11001 S"
b11001 V"
b11001 Y"
#22
b11001 |"
b11001 !
b11001 ,
b11001 j
b11001 O
b11001 `"
b11001 $#
b11001 F#
1$
1T
#24
0$
0T
#25
1k
0h
b11000 b#
b11000 #
b11000 .
b11001 @#
b11001 "
b11001 -
bx |"
bx !
bx ,
b1000000 X
b1000000 V
b110 '
b100 +
b100 2
b100 a#
b101 *
b101 1
b101 ?#
b110 )
b110 0
b110 {"
b110 (
b110 3
b110 W
b11010 %
b11010 /
b11010 Z
b11010 ]
b11010 `
b11010 c
b11010 f
b11010 i
b11010 l
b11010 o
b11010 r
b11010 u
b11010 x
b11010 {
b11010 ~
b11010 #"
b11010 &"
b11010 )"
b11010 ,"
b11010 /"
b11010 2"
b11010 5"
b11010 8"
b11010 ;"
b11010 >"
b11010 A"
b11010 D"
b11010 G"
b11010 J"
b11010 M"
b11010 P"
b11010 S"
b11010 V"
b11010 Y"
#26
b11010 |"
b11010 !
b11010 ,
b11010 m
b11010 P
b11010 a"
b11010 %#
b11010 G#
1$
1T
#28
0$
0T
#29
1n
0k
b11001 b#
b11001 #
b11001 .
b11010 @#
b11010 "
b11010 -
bx |"
bx !
bx ,
b10000000 X
b10000000 V
b111 '
b101 +
b101 2
b101 a#
b110 *
b110 1
b110 ?#
b111 )
b111 0
b111 {"
b111 (
b111 3
b111 W
b11011 %
b11011 /
b11011 Z
b11011 ]
b11011 `
b11011 c
b11011 f
b11011 i
b11011 l
b11011 o
b11011 r
b11011 u
b11011 x
b11011 {
b11011 ~
b11011 #"
b11011 &"
b11011 )"
b11011 ,"
b11011 /"
b11011 2"
b11011 5"
b11011 8"
b11011 ;"
b11011 >"
b11011 A"
b11011 D"
b11011 G"
b11011 J"
b11011 M"
b11011 P"
b11011 S"
b11011 V"
b11011 Y"
#30
b11011 |"
b11011 !
b11011 ,
b11011 p
b11011 Q
b11011 b"
b11011 &#
b11011 H#
1$
1T
#32
0$
0T
#33
1q
0n
b11010 b#
b11010 #
b11010 .
b11011 @#
b11011 "
b11011 -
bx |"
bx !
bx ,
b100000000 X
b100000000 V
b1000 '
b110 +
b110 2
b110 a#
b111 *
b111 1
b111 ?#
b1000 )
b1000 0
b1000 {"
b1000 (
b1000 3
b1000 W
b11100 %
b11100 /
b11100 Z
b11100 ]
b11100 `
b11100 c
b11100 f
b11100 i
b11100 l
b11100 o
b11100 r
b11100 u
b11100 x
b11100 {
b11100 ~
b11100 #"
b11100 &"
b11100 )"
b11100 ,"
b11100 /"
b11100 2"
b11100 5"
b11100 8"
b11100 ;"
b11100 >"
b11100 A"
b11100 D"
b11100 G"
b11100 J"
b11100 M"
b11100 P"
b11100 S"
b11100 V"
b11100 Y"
#34
b11100 |"
b11100 !
b11100 ,
b11100 s
b11100 R
b11100 c"
b11100 '#
b11100 I#
1$
1T
#36
0$
0T
#37
1t
0q
b11011 b#
b11011 #
b11011 .
b11100 @#
b11100 "
b11100 -
bx |"
bx !
bx ,
b1000000000 X
b1000000000 V
b1001 '
b111 +
b111 2
b111 a#
b1000 *
b1000 1
b1000 ?#
b1001 )
b1001 0
b1001 {"
b1001 (
b1001 3
b1001 W
b11101 %
b11101 /
b11101 Z
b11101 ]
b11101 `
b11101 c
b11101 f
b11101 i
b11101 l
b11101 o
b11101 r
b11101 u
b11101 x
b11101 {
b11101 ~
b11101 #"
b11101 &"
b11101 )"
b11101 ,"
b11101 /"
b11101 2"
b11101 5"
b11101 8"
b11101 ;"
b11101 >"
b11101 A"
b11101 D"
b11101 G"
b11101 J"
b11101 M"
b11101 P"
b11101 S"
b11101 V"
b11101 Y"
#38
b11101 |"
b11101 !
b11101 ,
b11101 v
b11101 S
b11101 d"
b11101 (#
b11101 J#
1$
1T
#40
0$
0T
#41
1w
0t
b11100 b#
b11100 #
b11100 .
b11101 @#
b11101 "
b11101 -
bx |"
bx !
bx ,
b10000000000 X
b10000000000 V
b1010 '
b1000 +
b1000 2
b1000 a#
b1001 *
b1001 1
b1001 ?#
b1010 )
b1010 0
b1010 {"
b1010 (
b1010 3
b1010 W
b11110 %
b11110 /
b11110 Z
b11110 ]
b11110 `
b11110 c
b11110 f
b11110 i
b11110 l
b11110 o
b11110 r
b11110 u
b11110 x
b11110 {
b11110 ~
b11110 #"
b11110 &"
b11110 )"
b11110 ,"
b11110 /"
b11110 2"
b11110 5"
b11110 8"
b11110 ;"
b11110 >"
b11110 A"
b11110 D"
b11110 G"
b11110 J"
b11110 M"
b11110 P"
b11110 S"
b11110 V"
b11110 Y"
#42
b11110 |"
b11110 !
b11110 ,
b11110 y
b11110 6
b11110 e"
b11110 )#
b11110 K#
1$
1T
#44
0$
0T
#45
1z
0w
b11101 b#
b11101 #
b11101 .
b11110 @#
b11110 "
b11110 -
bx |"
bx !
bx ,
b100000000000 X
b100000000000 V
b1011 '
b1001 +
b1001 2
b1001 a#
b1010 *
b1010 1
b1010 ?#
b1011 )
b1011 0
b1011 {"
b1011 (
b1011 3
b1011 W
b11111 %
b11111 /
b11111 Z
b11111 ]
b11111 `
b11111 c
b11111 f
b11111 i
b11111 l
b11111 o
b11111 r
b11111 u
b11111 x
b11111 {
b11111 ~
b11111 #"
b11111 &"
b11111 )"
b11111 ,"
b11111 /"
b11111 2"
b11111 5"
b11111 8"
b11111 ;"
b11111 >"
b11111 A"
b11111 D"
b11111 G"
b11111 J"
b11111 M"
b11111 P"
b11111 S"
b11111 V"
b11111 Y"
#46
b11111 |"
b11111 !
b11111 ,
b11111 |
b11111 7
b11111 f"
b11111 *#
b11111 L#
1$
1T
#48
0$
0T
#49
1}
0z
b11110 b#
b11110 #
b11110 .
b11111 @#
b11111 "
b11111 -
bx |"
bx !
bx ,
b1000000000000 X
b1000000000000 V
b1100 '
b1010 +
b1010 2
b1010 a#
b1011 *
b1011 1
b1011 ?#
b1100 )
b1100 0
b1100 {"
b1100 (
b1100 3
b1100 W
b100000 %
b100000 /
b100000 Z
b100000 ]
b100000 `
b100000 c
b100000 f
b100000 i
b100000 l
b100000 o
b100000 r
b100000 u
b100000 x
b100000 {
b100000 ~
b100000 #"
b100000 &"
b100000 )"
b100000 ,"
b100000 /"
b100000 2"
b100000 5"
b100000 8"
b100000 ;"
b100000 >"
b100000 A"
b100000 D"
b100000 G"
b100000 J"
b100000 M"
b100000 P"
b100000 S"
b100000 V"
b100000 Y"
#50
b100000 |"
b100000 !
b100000 ,
b100000 !"
b100000 8
b100000 g"
b100000 +#
b100000 M#
1$
1T
#52
0$
0T
#53
1""
0}
b11111 b#
b11111 #
b11111 .
b100000 @#
b100000 "
b100000 -
bx |"
bx !
bx ,
b10000000000000 X
b10000000000000 V
b1101 '
b1011 +
b1011 2
b1011 a#
b1100 *
b1100 1
b1100 ?#
b1101 )
b1101 0
b1101 {"
b1101 (
b1101 3
b1101 W
b100001 %
b100001 /
b100001 Z
b100001 ]
b100001 `
b100001 c
b100001 f
b100001 i
b100001 l
b100001 o
b100001 r
b100001 u
b100001 x
b100001 {
b100001 ~
b100001 #"
b100001 &"
b100001 )"
b100001 ,"
b100001 /"
b100001 2"
b100001 5"
b100001 8"
b100001 ;"
b100001 >"
b100001 A"
b100001 D"
b100001 G"
b100001 J"
b100001 M"
b100001 P"
b100001 S"
b100001 V"
b100001 Y"
#54
b100001 |"
b100001 !
b100001 ,
b100001 $"
b100001 9
b100001 h"
b100001 ,#
b100001 N#
1$
1T
#56
0$
0T
#57
1%"
0""
b100000 b#
b100000 #
b100000 .
b100001 @#
b100001 "
b100001 -
bx |"
bx !
bx ,
b100000000000000 X
b100000000000000 V
b1110 '
b1100 +
b1100 2
b1100 a#
b1101 *
b1101 1
b1101 ?#
b1110 )
b1110 0
b1110 {"
b1110 (
b1110 3
b1110 W
b100010 %
b100010 /
b100010 Z
b100010 ]
b100010 `
b100010 c
b100010 f
b100010 i
b100010 l
b100010 o
b100010 r
b100010 u
b100010 x
b100010 {
b100010 ~
b100010 #"
b100010 &"
b100010 )"
b100010 ,"
b100010 /"
b100010 2"
b100010 5"
b100010 8"
b100010 ;"
b100010 >"
b100010 A"
b100010 D"
b100010 G"
b100010 J"
b100010 M"
b100010 P"
b100010 S"
b100010 V"
b100010 Y"
#58
b100010 |"
b100010 !
b100010 ,
b100010 '"
b100010 :
b100010 i"
b100010 -#
b100010 O#
1$
1T
#60
0$
0T
#61
1("
0%"
b100001 b#
b100001 #
b100001 .
b100010 @#
b100010 "
b100010 -
bx |"
bx !
bx ,
b1000000000000000 X
b1000000000000000 V
b1111 '
b1101 +
b1101 2
b1101 a#
b1110 *
b1110 1
b1110 ?#
b1111 )
b1111 0
b1111 {"
b1111 (
b1111 3
b1111 W
b100011 %
b100011 /
b100011 Z
b100011 ]
b100011 `
b100011 c
b100011 f
b100011 i
b100011 l
b100011 o
b100011 r
b100011 u
b100011 x
b100011 {
b100011 ~
b100011 #"
b100011 &"
b100011 )"
b100011 ,"
b100011 /"
b100011 2"
b100011 5"
b100011 8"
b100011 ;"
b100011 >"
b100011 A"
b100011 D"
b100011 G"
b100011 J"
b100011 M"
b100011 P"
b100011 S"
b100011 V"
b100011 Y"
#62
b100011 |"
b100011 !
b100011 ,
b100011 *"
b100011 ;
b100011 j"
b100011 .#
b100011 P#
1$
1T
#64
0$
0T
#65
1+"
0("
b100010 b#
b100010 #
b100010 .
b100011 @#
b100011 "
b100011 -
bx |"
bx !
bx ,
b10000000000000000 X
b10000000000000000 V
b10000 '
b1110 +
b1110 2
b1110 a#
b1111 *
b1111 1
b1111 ?#
b10000 )
b10000 0
b10000 {"
b10000 (
b10000 3
b10000 W
b100100 %
b100100 /
b100100 Z
b100100 ]
b100100 `
b100100 c
b100100 f
b100100 i
b100100 l
b100100 o
b100100 r
b100100 u
b100100 x
b100100 {
b100100 ~
b100100 #"
b100100 &"
b100100 )"
b100100 ,"
b100100 /"
b100100 2"
b100100 5"
b100100 8"
b100100 ;"
b100100 >"
b100100 A"
b100100 D"
b100100 G"
b100100 J"
b100100 M"
b100100 P"
b100100 S"
b100100 V"
b100100 Y"
#66
b100100 |"
b100100 !
b100100 ,
b100100 -"
b100100 <
b100100 k"
b100100 /#
b100100 Q#
1$
1T
#68
0$
0T
