register_file/register_file_test02.vcd
$date
	Tue Mar 14 15:50:42 2023
$end
$version
	Icarus Verilog
$end
$timescale
	1s
$end
$scope module register_file_test02 $end
$var wire 32 ! outputA [31:0] $end
$var wire 32 " outputB [31:0] $end
$var wire 32 # outputD [31:0] $end
$var reg 1 $ clock $end
$var reg 32 % data_writer [31:0] $end
$var reg 1 & enable $end
$var integer 32 ' i [31:0] $end
$var reg 5 ( select_decoder [4:0] $end
$var reg 5 ) select_readerA [4:0] $end
$var reg 5 * select_readerB [4:0] $end
$var reg 5 + select_readerD [4:0] $end
$scope module RF01 $end
$var wire 32 , PA [31:0] $end
$var wire 32 - PB [31:0] $end
$var wire 32 . PD [31:0] $end
$var wire 32 / PW [31:0] $end
$var wire 5 0 RA [4:0] $end
$var wire 5 1 RB [4:0] $end
$var wire 5 2 RD [4:0] $end
$var wire 5 3 RW [4:0] $end
$var wire 32 4 Rout0 [31:0] $end
$var wire 32 5 Rout1 [31:0] $end
$var wire 32 6 Rout10 [31:0] $end
$var wire 32 7 Rout11 [31:0] $end
$var wire 32 8 Rout12 [31:0] $end
$var wire 32 9 Rout13 [31:0] $end
$var wire 32 : Rout14 [31:0] $end
$var wire 32 ; Rout15 [31:0] $end
$var wire 32 < Rout16 [31:0] $end
$var wire 32 = Rout17 [31:0] $end
$var wire 32 > Rout18 [31:0] $end
$var wire 32 ? Rout19 [31:0] $end
$var wire 32 @ Rout2 [31:0] $end
$var wire 32 A Rout20 [31:0] $end
$var wire 32 B Rout21 [31:0] $end
$var wire 32 C Rout22 [31:0] $end
$var wire 32 D Rout23 [31:0] $end
$var wire 32 E Rout24 [31:0] $end
$var wire 32 F Rout25 [31:0] $end
$var wire 32 G Rout26 [31:0] $end
$var wire 32 H Rout27 [31:0] $end
$var wire 32 I Rout28 [31:0] $end
$var wire 32 J Rout29 [31:0] $end
$var wire 32 K Rout3 [31:0] $end
$var wire 32 L Rout30 [31:0] $end
$var wire 32 M Rout31 [31:0] $end
$var wire 32 N Rout4 [31:0] $end
$var wire 32 O Rout5 [31:0] $end
$var wire 32 P Rout6 [31:0] $end
$var wire 32 Q Rout7 [31:0] $end
$var wire 32 R Rout8 [31:0] $end
$var wire 32 S Rout9 [31:0] $end
$var wire 1 T clock $end
$var wire 1 U enable $end
$var wire 32 V out_decoder [31:0] $end
$scope module D01 $end
$var wire 1 U enable $end
$var wire 5 W select [4:0] $end
$var reg 32 X out_add [31:0] $end
$upscope $end
$scope module R0 $end
$var wire 1 T clock $end
$var wire 1 Y enable $end
$var wire 32 Z in_reg [31:0] $end
$var reg 32 [ out_reg [31:0] $end
$upscope $end
$scope module R1 $end
$var wire 1 T clock $end
$var wire 1 \ enable $end
$var wire 32 ] in_reg [31:0] $end
$var reg 32 ^ out_reg [31:0] $end
$upscope $end
$scope module R2 $end
$var wire 1 T clock $end
$var wire 1 _ enable $end
$var wire 32 ` in_reg [31:0] $end
$var reg 32 a out_reg [31:0] $end
$upscope $end
$scope module R3 $end
$var wire 1 T clock $end
$var wire 1 b enable $end
$var wire 32 c in_reg [31:0] $end
$var reg 32 d out_reg [31:0] $end
$upscope $end
$scope module R4 $end
$var wire 1 T clock $end
$var wire 1 e enable $end
$var wire 32 f in_reg [31:0] $end
$var reg 32 g out_reg [31:0] $end
$upscope $end
$scope module R5 $end
$var wire 1 T clock $end
$var wire 1 h enable $end
$var wire 32 i in_reg [31:0] $end
$var reg 32 j out_reg [31:0] $end
$upscope $end
$scope module R6 $end
$var wire 1 T clock $end
$var wire 1 k enable $end
$var wire 32 l in_reg [31:0] $end
$var reg 32 m out_reg [31:0] $end
$upscope $end
$scope module R7 $end
$var wire 1 T clock $end
$var wire 1 n enable $end
$var wire 32 o in_reg [31:0] $end
$var reg 32 p out_reg [31:0] $end
$upscope $end
$scope module R8 $end
$var wire 1 T clock $end
$var wire 1 q enable $end
$var wire 32 r in_reg [31:0] $end
$var reg 32 s out_reg [31:0] $end
$upscope $end
$scope module R9 $end
$var wire 1 T clock $end
$var wire 1 t enable $end
$var wire 32 u in_reg [31:0] $end
$var reg 32 v out_reg [31:0] $end
$upscope $end
$scope module R10 $end
$var wire 1 T clock $end
$var wire 1 w enable $end
$var wire 32 x in_reg [31:0] $end
$var reg 32 y out_reg [31:0] $end
$upscope $end
$scope module R11 $end
$var wire 1 T clock $end
$var wire 1 z enable $end
$var wire 32 { in_reg [31:0] $end
$var reg 32 | out_reg [31:0] $end
$upscope $end
$scope module R12 $end
$var wire 1 T clock $end
$var wire 1 } enable $end
$var wire 32 ~ in_reg [31:0] $end
$var reg 32 !" out_reg [31:0] $end
$upscope $end
$scope module R13 $end
$var wire 1 T clock $end
$var wire 1 "" enable $end
$var wire 32 #" in_reg [31:0] $end
$var reg 32 $" out_reg [31:0] $end
$upscope $end
$scope module R14 $end
$var wire 1 T clock $end
$var wire 1 %" enable $end
$var wire 32 &" in_reg [31:0] $end
$var reg 32 '" out_reg [31:0] $end
$upscope $end
$scope module R15 $end
$var wire 1 T clock $end
$var wire 1 (" enable $end
$var wire 32 )" in_reg [31:0] $end
$var reg 32 *" out_reg [31:0] $end
$upscope $end
$scope module R16 $end
$var wire 1 T clock $end
$var wire 1 +" enable $end
$var wire 32 ," in_reg [31:0] $end
$var reg 32 -" out_reg [31:0] $end
$upscope $end
$scope module R17 $end
$var wire 1 T clock $end
$var wire 1 ." enable $end
$var wire 32 /" in_reg [31:0] $end
$var reg 32 0" out_reg [31:0] $end
$upscope $end
$scope module R18 $end
$var wire 1 T clock $end
$var wire 1 1" enable $end
$var wire 32 2" in_reg [31:0] $end
$var reg 32 3" out_reg [31:0] $end
$upscope $end
$scope module R19 $end
$var wire 1 T clock $end
$var wire 1 4" enable $end
$var wire 32 5" in_reg [31:0] $end
$var reg 32 6" out_reg [31:0] $end
$upscope $end
$scope module R20 $end
$var wire 1 T clock $end
$var wire 1 7" enable $end
$var wire 32 8" in_reg [31:0] $end
$var reg 32 9" out_reg [31:0] $end
$upscope $end
$scope module R21 $end
$var wire 1 T clock $end
$var wire 1 :" enable $end
$var wire 32 ;" in_reg [31:0] $end
$var reg 32 <" out_reg [31:0] $end
$upscope $end
$scope module R22 $end
$var wire 1 T clock $end
$var wire 1 =" enable $end
$var wire 32 >" in_reg [31:0] $end
$var reg 32 ?" out_reg [31:0] $end
$upscope $end
$scope module R23 $end
$var wire 1 T clock $end
$var wire 1 @" enable $end
$var wire 32 A" in_reg [31:0] $end
$var reg 32 B" out_reg [31:0] $end
$upscope $end
$scope module R24 $end
$var wire 1 T clock $end
$var wire 1 C" enable $end
$var wire 32 D" in_reg [31:0] $end
$var reg 32 E" out_reg [31:0] $end
$upscope $end
$scope module R25 $end
$var wire 1 T clock $end
$var wire 1 F" enable $end
$var wire 32 G" in_reg [31:0] $end
$var reg 32 H" out_reg [31:0] $end
$upscope $end
$scope module R26 $end
$var wire 1 T clock $end
$var wire 1 I" enable $end
$var wire 32 J" in_reg [31:0] $end
$var reg 32 K" out_reg [31:0] $end
$upscope $end
$scope module R27 $end
$var wire 1 T clock $end
$var wire 1 L" enable $end
$var wire 32 M" in_reg [31:0] $end
$var reg 32 N" out_reg [31:0] $end
$upscope $end
$scope module R28 $end
$var wire 1 T clock $end
$var wire 1 O" enable $end
$var wire 32 P" in_reg [31:0] $end
$var reg 32 Q" out_reg [31:0] $end
$upscope $end
$scope module R29 $end
$var wire 1 T clock $end
$var wire 1 R" enable $end
$var wire 32 S" in_reg [31:0] $end
$var reg 32 T" out_reg [31:0] $end
$upscope $end
$scope module R30 $end
$var wire 1 T clock $end
$var wire 1 U" enable $end
$var wire 32 V" in_reg [31:0] $end
$var reg 32 W" out_reg [31:0] $end
$upscope $end
$scope module R31 $end
$var wire 1 T clock $end
$var wire 1 X" enable $end
$var wire 32 Y" in_reg [31:0] $end
$var reg 32 Z" out_reg [31:0] $end
$upscope $end
$scope module M01 $end
$var wire 32 [" R00 [31:0] $end
$var wire 32 \" R01 [31:0] $end
$var wire 32 ]" R02 [31:0] $end
$var wire 32 ^" R03 [31:0] $end
$var wire 32 _" R04 [31:0] $end
$var wire 32 `" R05 [31:0] $end
$var wire 32 a" R06 [31:0] $end
$var wire 32 b" R07 [31:0] $end
$var wire 32 c" R08 [31:0] $end
$var wire 32 d" R09 [31:0] $end
$var wire 32 e" R10 [31:0] $end
$var wire 32 f" R11 [31:0] $end
$var wire 32 g" R12 [31:0] $end
$var wire 32 h" R13 [31:0] $end
$var wire 32 i" R14 [31:0] $end
$var wire 32 j" R15 [31:0] $end
$var wire 32 k" R16 [31:0] $end
$var wire 32 l" R17 [31:0] $end
$var wire 32 m" R18 [31:0] $end
$var wire 32 n" R19 [31:0] $end
$var wire 32 o" R20 [31:0] $end
$var wire 32 p" R21 [31:0] $end
$var wire 32 q" R22 [31:0] $end
$var wire 32 r" R23 [31:0] $end
$var wire 32 s" R24 [31:0] $end
$var wire 32 t" R25 [31:0] $end
$var wire 32 u" R26 [31:0] $end
$var wire 32 v" R27 [31:0] $end
$var wire 32 w" R28 [31:0] $end
$var wire 32 x" R29 [31:0] $end
$var wire 32 y" R30 [31:0] $end
$var wire 32 z" R31 [31:0] $end
$var wire 5 {" select [4:0] $end
$var reg 32 |" out_reg [31:0] $end
$upscope $end
$scope module M02 $end
$var wire 32 }" R00 [31:0] $end
$var wire 32 ~" R01 [31:0] $end
$var wire 32 !# R02 [31:0] $end
$var wire 32 "# R03 [31:0] $end
$var wire 32 ## R04 [31:0] $end
$var wire 32 $# R05 [31:0] $end
$var wire 32 %# R06 [31:0] $end
$var wire 32 &# R07 [31:0] $end
$var wire 32 '# R08 [31:0] $end
$var wire 32 (# R09 [31:0] $end
$var wire 32 )# R10 [31:0] $end
$var wire 32 *# R11 [31:0] $end
$var wire 32 +# R12 [31:0] $end
$var wire 32 ,# R13 [31:0] $end
$var wire 32 -# R14 [31:0] $end
$var wire 32 .# R15 [31:0] $end
$var wire 32 /# R16 [31:0] $end
$var wire 32 0# R17 [31:0] $end
$var wire 32 1# R18 [31:0] $end
$var wire 32 2# R19 [31:0] $end
$var wire 32 3# R20 [31:0] $end
$var wire 32 4# R21 [31:0] $end
$var wire 32 5# R22 [31:0] $end
$var wire 32 6# R23 [31:0] $end
$var wire 32 7# R24 [31:0] $end
$var wire 32 8# R25 [31:0] $end
$var wire 32 9# R26 [31:0] $end
$var wire 32 :# R27 [31:0] $end
$var wire 32 ;# R28 [31:0] $end
$var wire 32 <# R29 [31:0] $end
$var wire 32 =# R30 [31:0] $end
$var wire 32 ># R31 [31:0] $end
$var wire 5 ?# select [4:0] $end
$var reg 32 @# out_reg [31:0] $end
$upscope $end
$scope module M03 $end
$var wire 32 A# R00 [31:0] $end
$var wire 32 B# R01 [31:0] $end
$var wire 32 C# R02 [31:0] $end
$var wire 32 D# R03 [31:0] $end
$var wire 32 E# R04 [31:0] $end
$var wire 32 F# R05 [31:0] $end
$var wire 32 G# R06 [31:0] $end
$var wire 32 H# R07 [31:0] $end
$var wire 32 I# R08 [31:0] $end
$var wire 32 J# R09 [31:0] $end
$var wire 32 K# R10 [31:0] $end
$var wire 32 L# R11 [31:0] $end
$var wire 32 M# R12 [31:0] $end
$var wire 32 N# R13 [31:0] $end
$var wire 32 O# R14 [31:0] $end
$var wire 32 P# R15 [31:0] $end
$var wire 32 Q# R16 [31:0] $end
$var wire 32 R# R17 [31:0] $end
$var wire 32 S# R18 [31:0] $end
$var wire 32 T# R19 [31:0] $end
$var wire 32 U# R20 [31:0] $end
$var wire 32 V# R21 [31:0] $end
$var wire 32 W# R22 [31:0] $end
$var wire 32 X# R23 [31:0] $end
$var wire 32 Y# R24 [31:0] $end
$var wire 32 Z# R25 [31:0] $end
$var wire 32 [# R26 [31:0] $end
$var wire 32 \# R27 [31:0] $end
$var wire 32 ]# R28 [31:0] $end
$var wire 32 ^# R29 [31:0] $end
$var wire 32 _# R30 [31:0] $end
$var wire 32 `# R31 [31:0] $end
$var wire 5 a# select [4:0] $end
$var reg 32 b# out_reg [31:0] $end
$upscope $end
$upscope $end
$upscope $end
$enddefinitions $end
#0
$dumpvars
bx b#
b11110 a#
bx `#
bx _#
bx ^#
bx ]#
bx \#
bx [#
bx Z#
bx Y#
bx X#
bx W#
bx V#
bx U#
bx T#
bx S#
bx R#
bx Q#
bx P#
bx O#
bx N#
bx M#
bx L#
bx K#
bx J#
bx I#
bx H#
bx G#
bx F#
bx E#
bx D#
bx C#
bx B#
bx A#
bx @#
b11111 ?#
bx >#
bx =#
bx <#
bx ;#
bx :#
bx 9#
bx 8#
bx 7#
bx 6#
bx 5#
bx 4#
bx 3#
bx 2#
bx 1#
bx 0#
bx /#
bx .#
bx -#
bx ,#
bx +#
bx *#
bx )#
bx (#
bx '#
bx &#
bx %#
bx $#
bx ##
bx "#
bx !#
bx ~"
bx }"
bx |"
b0 {"
bx z"
bx y"
bx x"
bx w"
bx v"
bx u"
bx t"
bx s"
bx r"
bx q"
bx p"
bx o"
bx n"
bx m"
bx l"
bx k"
bx j"
bx i"
bx h"
bx g"
bx f"
bx e"
bx d"
bx c"
bx b"
bx a"
bx `"
bx _"
bx ^"
bx ]"
bx \"
bx ["
bx Z"
b10100 Y"
0X"
bx W"
b10100 V"
0U"
bx T"
b10100 S"
0R"
bx Q"
b10100 P"
0O"
bx N"
b10100 M"
0L"
bx K"
b10100 J"
0I"
bx H"
b10100 G"
0F"
bx E"
b10100 D"
0C"
bx B"
b10100 A"
0@"
bx ?"
b10100 >"
0="
bx <"
b10100 ;"
0:"
bx 9"
b10100 8"
07"
bx 6"
b10100 5"
04"
bx 3"
b10100 2"
01"
bx 0"
b10100 /"
0."
bx -"
b10100 ,"
0+"
bx *"
b10100 )"
0("
bx '"
b10100 &"
0%"
bx $"
b10100 #"
0""
bx !"
b10100 ~
0}
bx |
b10100 {
0z
bx y
b10100 x
0w
bx v
b10100 u
0t
bx s
b10100 r
0q
bx p
b10100 o
0n
bx m
b10100 l
0k
bx j
b10100 i
0h
bx g
b10100 f
0e
bx d
b10100 c
0b
bx a
b10100 `
0_
bx ^
b10100 ]
0\
bx [
b10100 Z
1Y
b1 X
b0 W
b1 V
1U
0T
bx S
bx R
bx Q
bx P
bx O
bx N
bx M
bx L
bx K
bx J
bx I
bx H
bx G
bx F
bx E
bx D
bx C
bx B
bx A
bx @
bx ?
bx >
bx =
bx <
bx ;
bx :
bx 9
bx 8
bx 7
bx 6
bx 5
bx 4
b0 3
b11110 2
b11111 1
b0 0
b10100 /
bx .
bx -
bx ,
b11110 +
b11111 *
b0 )
b0 (
b0 '
1&
b10100 %
0$
bx #
bx "
bx !
$end
#2
b10100 |"
b10100 !
b10100 ,
b10100 [
b10100 4
b10100 ["
b10100 }"
b10100 A#
1$
1T
#4
0$
0T
b10101 %
b10101 /
b10101 Z
b10101 ]
b10101 `
b10101 c
b10101 f
b10101 i
b10101 l
b10101 o
b10101 r
b10101 u
b10101 x
b10101 {
b10101 ~
b10101 #"
b10101 &"
b10101 )"
b10101 ,"
b10101 /"
b10101 2"
b10101 5"
b10101 8"
b10101 ;"
b10101 >"
b10101 A"
b10101 D"
b10101 G"
b10101 J"
b10101 M"
b10101 P"
b10101 S"
b10101 V"
b10101 Y"
#6
b10101 |"
b10101 !
b10101 ,
b10101 [
b10101 4
b10101 ["
b10101 }"
b10101 A#
1$
1T
#8
1\
0Y
b10 X
b10 V
0$
0T
b1 (
b1 3
b1 W
#10
b10101 ^
b10101 5
b10101 \"
b10101 ~"
b10101 B#
1$
1T
#12
0$
0T
b1 )
b1 0
b1 {"
#14
1$
1T
#16
b10101 @#
b10101 "
b10101 -
0$
0T
b0 *
b0 1
b0 ?#
#18
1$
1T
#20
0$
0T
b1 '
b11111 +
b11111 2
b11111 a#
#22
1$
1T
#24
0$
0T
b10110 %
b10110 /
b10110 Z
b10110 ]
b10110 `
b10110 c
b10110 f
b10110 i
b10110 l
b10110 o
b10110 r
b10110 u
b10110 x
b10110 {
b10110 ~
b10110 #"
b10110 &"
b10110 )"
b10110 ,"
b10110 /"
b10110 2"
b10110 5"
b10110 8"
b10110 ;"
b10110 >"
b10110 A"
b10110 D"
b10110 G"
b10110 J"
b10110 M"
b10110 P"
b10110 S"
b10110 V"
b10110 Y"
#26
b10110 |"
b10110 !
b10110 ,
b10110 ^
b10110 5
b10110 \"
b10110 ~"
b10110 B#
1$
1T
#28
1_
0\
b100 X
b100 V
0$
0T
b10 (
b10 3
b10 W
#30
b10110 a
b10110 @
b10110 ]"
b10110 !#
b10110 C#
1$
1T
#32
0$
0T
b10 )
b10 0
b10 {"
#34
1$
1T
#36
b10110 @#
b10110 "
b10110 -
0$
0T
b1 *
b1 1
b1 ?#
#38
1$
1T
#40
b10101 b#
b10101 #
b10101 .
0$
0T
b10 '
b0 +
b0 2
b0 a#
#42
1$
1T
#44
0$
0T
b10111 %
b10111 /
b10111 Z
b10111 ]
b10111 `
b10111 c
b10111 f
b10111 i
b10111 l
b10111 o
b10111 r
b10111 u
b10111 x
b10111 {
b10111 ~
b10111 #"
b10111 &"
b10111 )"
b10111 ,"
b10111 /"
b10111 2"
b10111 5"
b10111 8"
b10111 ;"
b10111 >"
b10111 A"
b10111 D"
b10111 G"
b10111 J"
b10111 M"
b10111 P"
b10111 S"
b10111 V"
b10111 Y"
#46
b10111 |"
b10111 !
b10111 ,
b10111 a
b10111 @
b10111 ]"
b10111 !#
b10111 C#
1$
1T
#48
1b
0_
b1000 X
b1000 V
0$
0T
b11 (
b11 3
b11 W
#50
b10111 d
b10111 K
b10111 ^"
b10111 "#
b10111 D#
1$
1T
#52
0$
0T
b11 )
b11 0
b11 {"
#54
1$
1T
#56
b10111 @#
b10111 "
b10111 -
0$
0T
b10 *
b10 1
b10 ?#
#58
1$
1T
#60
b10110 b#
b10110 #
b10110 .
0$
0T
b11 '
b1 +
b1 2
b1 a#
#62
1$
1T
#64
0$
0T
b11000 %
b11000 /
b11000 Z
b11000 ]
b11000 `
b11000 c
b11000 f
b11000 i
b11000 l
b11000 o
b11000 r
b11000 u
b11000 x
b11000 {
b11000 ~
b11000 #"
b11000 &"
b11000 )"
b11000 ,"
b11000 /"
b11000 2"
b11000 5"
b11000 8"
b11000 ;"
b11000 >"
b11000 A"
b11000 D"
b11000 G"
b11000 J"
b11000 M"
b11000 P"
b11000 S"
b11000 V"
b11000 Y"
#66
b11000 |"
b11000 !
b11000 ,
b11000 d
b11000 K
b11000 ^"
b11000 "#
b11000 D#
1$
1T
#68
1e
0b
b10000 X
b10000 V
0$
0T
b100 (
b100 3
b100 W
#70
b11000 g
b11000 N
b11000 _"
b11000 ##
b11000 E#
1$
1T
#72
0$
0T
b100 )
b100 0
b100 {"
#74
1$
1T
#76
b11000 @#
b11000 "
b11000 -
0$
0T
b11 *
b11 1
b11 ?#
#78
1$
1T
#80
b10111 b#
b10111 #
b10111 .
0$
0T
b100 '
b10 +
b10 2
b10 a#
#82
1$
1T
#84
0$
0T
b11001 %
b11001 /
b11001 Z
b11001 ]
b11001 `
b11001 c
b11001 f
b11001 i
b11001 l
b11001 o
b11001 r
b11001 u
b11001 x
b11001 {
b11001 ~
b11001 #"
b11001 &"
b11001 )"
b11001 ,"
b11001 /"
b11001 2"
b11001 5"
b11001 8"
b11001 ;"
b11001 >"
b11001 A"
b11001 D"
b11001 G"
b11001 J"
b11001 M"
b11001 P"
b11001 S"
b11001 V"
b11001 Y"
#86
b11001 |"
b11001 !
b11001 ,
b11001 g
b11001 N
b11001 _"
b11001 ##
b11001 E#
1$
1T
#88
1h
0e
b100000 X
b100000 V
0$
0T
b101 (
b101 3
b101 W
#90
b11001 j
b11001 O
b11001 `"
b11001 $#
b11001 F#
1$
1T
#92
0$
0T
b101 )
b101 0
b101 {"
#94
1$
1T
#96
b11001 @#
b11001 "
b11001 -
0$
0T
b100 *
b100 1
b100 ?#
#98
1$
1T
#100
b11000 b#
b11000 #
b11000 .
0$
0T
b101 '
b11 +
b11 2
b11 a#
#102
1$
1T
#104
0$
0T
b11010 %
b11010 /
b11010 Z
b11010 ]
b11010 `
b11010 c
b11010 f
b11010 i
b11010 l
b11010 o
b11010 r
b11010 u
b11010 x
b11010 {
b11010 ~
b11010 #"
b11010 &"
b11010 )"
b11010 ,"
b11010 /"
b11010 2"
b11010 5"
b11010 8"
b11010 ;"
b11010 >"
b11010 A"
b11010 D"
b11010 G"
b11010 J"
b11010 M"
b11010 P"
b11010 S"
b11010 V"
b11010 Y"
#106
b11010 |"
b11010 !
b11010 ,
b11010 j
b11010 O
b11010 `"
b11010 $#
b11010 F#
1$
1T
#108
1k
0h
b1000000 X
b1000000 V
0$
0T
b110 (
b110 3
b110 W
#110
b11010 m
b11010 P
b11010 a"
b11010 %#
b11010 G#
1$
1T
#112
0$
0T
b110 )
b110 0
b110 {"
#114
1$
1T
#116
b11010 @#
b11010 "
b11010 -
0$
0T
b101 *
b101 1
b101 ?#
#118
1$
1T
#120
b11001 b#
b11001 #
b11001 .
0$
0T
b110 '
b100 +
b100 2
b100 a#
#122
1$
1T
#124
0$
0T
b11011 %
b11011 /
b11011 Z
b11011 ]
b11011 `
b11011 c
b11011 f
b11011 i
b11011 l
b11011 o
b11011 r
b11011 u
b11011 x
b11011 {
b11011 ~
b11011 #"
b11011 &"
b11011 )"
b11011 ,"
b11011 /"
b11011 2"
b11011 5"
b11011 8"
b11011 ;"
b11011 >"
b11011 A"
b11011 D"
b11011 G"
b11011 J"
b11011 M"
b11011 P"
b11011 S"
b11011 V"
b11011 Y"
#126
b11011 |"
b11011 !
b11011 ,
b11011 m
b11011 P
b11011 a"
b11011 %#
b11011 G#
1$
1T
#128
1n
0k
b10000000 X
b10000000 V
0$
0T
b111 (
b111 3
b111 W
#130
b11011 p
b11011 Q
b11011 b"
b11011 &#
b11011 H#
1$
1T
#132
0$
0T
b111 )
b111 0
b111 {"
#134
1$
1T
#136
b11011 @#
b11011 "
b11011 -
0$
0T
b110 *
b110 1
b110 ?#
#138
1$
1T
#140
b11010 b#
b11010 #
b11010 .
0$
0T
b111 '
b101 +
b101 2
b101 a#
#142
1$
1T
#144
0$
0T
b11100 %
b11100 /
b11100 Z
b11100 ]
b11100 `
b11100 c
b11100 f
b11100 i
b11100 l
b11100 o
b11100 r
b11100 u
b11100 x
b11100 {
b11100 ~
b11100 #"
b11100 &"
b11100 )"
b11100 ,"
b11100 /"
b11100 2"
b11100 5"
b11100 8"
b11100 ;"
b11100 >"
b11100 A"
b11100 D"
b11100 G"
b11100 J"
b11100 M"
b11100 P"
b11100 S"
b11100 V"
b11100 Y"
#146
b11100 |"
b11100 !
b11100 ,
b11100 p
b11100 Q
b11100 b"
b11100 &#
b11100 H#
1$
1T
#148
1q
0n
b100000000 X
b100000000 V
0$
0T
b1000 (
b1000 3
b1000 W
#150
b11100 s
b11100 R
b11100 c"
b11100 '#
b11100 I#
1$
1T
#152
0$
0T
b1000 )
b1000 0
b1000 {"
#154
1$
1T
#156
b11100 @#
b11100 "
b11100 -
0$
0T
b111 *
b111 1
b111 ?#
#158
1$
1T
#160
b11011 b#
b11011 #
b11011 .
0$
0T
b1000 '
b110 +
b110 2
b110 a#
#162
1$
1T
#164
0$
0T
b11101 %
b11101 /
b11101 Z
b11101 ]
b11101 `
b11101 c
b11101 f
b11101 i
b11101 l
b11101 o
b11101 r
b11101 u
b11101 x
b11101 {
b11101 ~
b11101 #"
b11101 &"
b11101 )"
b11101 ,"
b11101 /"
b11101 2"
b11101 5"
b11101 8"
b11101 ;"
b11101 >"
b11101 A"
b11101 D"
b11101 G"
b11101 J"
b11101 M"
b11101 P"
b11101 S"
b11101 V"
b11101 Y"
#166
b11101 |"
b11101 !
b11101 ,
b11101 s
b11101 R
b11101 c"
b11101 '#
b11101 I#
1$
1T
#168
1t
0q
b1000000000 X
b1000000000 V
0$
0T
b1001 (
b1001 3
b1001 W
#170
b11101 v
b11101 S
b11101 d"
b11101 (#
b11101 J#
1$
1T
#172
0$
0T
b1001 )
b1001 0
b1001 {"
#174
1$
1T
#176
b11101 @#
b11101 "
b11101 -
0$
0T
b1000 *
b1000 1
b1000 ?#
#178
1$
1T
#180
b11100 b#
b11100 #
b11100 .
0$
0T
b1001 '
b111 +
b111 2
b111 a#
#182
1$
1T
#184
0$
0T
b11110 %
b11110 /
b11110 Z
b11110 ]
b11110 `
b11110 c
b11110 f
b11110 i
b11110 l
b11110 o
b11110 r
b11110 u
b11110 x
b11110 {
b11110 ~
b11110 #"
b11110 &"
b11110 )"
b11110 ,"
b11110 /"
b11110 2"
b11110 5"
b11110 8"
b11110 ;"
b11110 >"
b11110 A"
b11110 D"
b11110 G"
b11110 J"
b11110 M"
b11110 P"
b11110 S"
b11110 V"
b11110 Y"
#186
b11110 |"
b11110 !
b11110 ,
b11110 v
b11110 S
b11110 d"
b11110 (#
b11110 J#
1$
1T
#188
1w
0t
b10000000000 X
b10000000000 V
0$
0T
b1010 (
b1010 3
b1010 W
#190
b11110 y
b11110 6
b11110 e"
b11110 )#
b11110 K#
1$
1T
#192
0$
0T
b1010 )
b1010 0
b1010 {"
#194
1$
1T
#196
b11110 @#
b11110 "
b11110 -
0$
0T
b1001 *
b1001 1
b1001 ?#
#198
1$
1T
#200
b11101 b#
b11101 #
b11101 .
0$
0T
b1010 '
b1000 +
b1000 2
b1000 a#
#202
1$
1T
#204
0$
0T
b11111 %
b11111 /
b11111 Z
b11111 ]
b11111 `
b11111 c
b11111 f
b11111 i
b11111 l
b11111 o
b11111 r
b11111 u
b11111 x
b11111 {
b11111 ~
b11111 #"
b11111 &"
b11111 )"
b11111 ,"
b11111 /"
b11111 2"
b11111 5"
b11111 8"
b11111 ;"
b11111 >"
b11111 A"
b11111 D"
b11111 G"
b11111 J"
b11111 M"
b11111 P"
b11111 S"
b11111 V"
b11111 Y"
#206
b11111 |"
b11111 !
b11111 ,
b11111 y
b11111 6
b11111 e"
b11111 )#
b11111 K#
1$
1T
#208
1z
0w
b100000000000 X
b100000000000 V
0$
0T
b1011 (
b1011 3
b1011 W
#210
b11111 |
b11111 7
b11111 f"
b11111 *#
b11111 L#
1$
1T
#212
0$
0T
b1011 )
b1011 0
b1011 {"
#214
1$
1T
#216
b11111 @#
b11111 "
b11111 -
0$
0T
b1010 *
b1010 1
b1010 ?#
#218
1$
1T
#220
b11110 b#
b11110 #
b11110 .
0$
0T
b1011 '
b1001 +
b1001 2
b1001 a#
#222
1$
1T
#224
0$
0T
b100000 %
b100000 /
b100000 Z
b100000 ]
b100000 `
b100000 c
b100000 f
b100000 i
b100000 l
b100000 o
b100000 r
b100000 u
b100000 x
b100000 {
b100000 ~
b100000 #"
b100000 &"
b100000 )"
b100000 ,"
b100000 /"
b100000 2"
b100000 5"
b100000 8"
b100000 ;"
b100000 >"
b100000 A"
b100000 D"
b100000 G"
b100000 J"
b100000 M"
b100000 P"
b100000 S"
b100000 V"
b100000 Y"
#226
b100000 |"
b100000 !
b100000 ,
b100000 |
b100000 7
b100000 f"
b100000 *#
b100000 L#
1$
1T
#228
1}
0z
b1000000000000 X
b1000000000000 V
0$
0T
b1100 (
b1100 3
b1100 W
#230
b100000 !"
b100000 8
b100000 g"
b100000 +#
b100000 M#
1$
1T
#232
0$
0T
b1100 )
b1100 0
b1100 {"
#234
1$
1T
#236
b100000 @#
b100000 "
b100000 -
0$
0T
b1011 *
b1011 1
b1011 ?#
#238
1$
1T
#240
b11111 b#
b11111 #
b11111 .
0$
0T
b1100 '
b1010 +
b1010 2
b1010 a#
#242
1$
1T
#244
0$
0T
b100001 %
b100001 /
b100001 Z
b100001 ]
b100001 `
b100001 c
b100001 f
b100001 i
b100001 l
b100001 o
b100001 r
b100001 u
b100001 x
b100001 {
b100001 ~
b100001 #"
b100001 &"
b100001 )"
b100001 ,"
b100001 /"
b100001 2"
b100001 5"
b100001 8"
b100001 ;"
b100001 >"
b100001 A"
b100001 D"
b100001 G"
b100001 J"
b100001 M"
b100001 P"
b100001 S"
b100001 V"
b100001 Y"
#246
b100001 |"
b100001 !
b100001 ,
b100001 !"
b100001 8
b100001 g"
b100001 +#
b100001 M#
1$
1T
#248
1""
0}
b10000000000000 X
b10000000000000 V
0$
0T
b1101 (
b1101 3
b1101 W
#250
b100001 $"
b100001 9
b100001 h"
b100001 ,#
b100001 N#
1$
1T
#252
0$
0T
b1101 )
b1101 0
b1101 {"
#254
1$
1T
#256
b100001 @#
b100001 "
b100001 -
0$
0T
b1100 *
b1100 1
b1100 ?#
#258
1$
1T
#260
b100000 b#
b100000 #
b100000 .
0$
0T
b1101 '
b1011 +
b1011 2
b1011 a#
#262
1$
1T
#264
0$
0T
b100010 %
b100010 /
b100010 Z
b100010 ]
b100010 `
b100010 c
b100010 f
b100010 i
b100010 l
b100010 o
b100010 r
b100010 u
b100010 x
b100010 {
b100010 ~
b100010 #"
b100010 &"
b100010 )"
b100010 ,"
b100010 /"
b100010 2"
b100010 5"
b100010 8"
b100010 ;"
b100010 >"
b100010 A"
b100010 D"
b100010 G"
b100010 J"
b100010 M"
b100010 P"
b100010 S"
b100010 V"
b100010 Y"
#266
b100010 |"
b100010 !
b100010 ,
b100010 $"
b100010 9
b100010 h"
b100010 ,#
b100010 N#
1$
1T
#268
1%"
0""
b100000000000000 X
b100000000000000 V
0$
0T
b1110 (
b1110 3
b1110 W
#270
b100010 '"
b100010 :
b100010 i"
b100010 -#
b100010 O#
1$
1T
#272
0$
0T
b1110 )
b1110 0
b1110 {"
#274
1$
1T
#276
b100010 @#
b100010 "
b100010 -
0$
0T
b1101 *
b1101 1
b1101 ?#
#278
1$
1T
#280
b100001 b#
b100001 #
b100001 .
0$
0T
b1110 '
b1100 +
b1100 2
b1100 a#
#282
1$
1T
